Digraph biseau_graph {
	node [shape=ellipse style=filled width=.25]
	edge [arrowhead=none labeldistance=1.5 minlen=2]
	modelisation->abstraction
	reseau->metabolisme
	application->microbiologie
	modelisation->asp
	requete->rdf
	application->tgfbeta
	proteines->classification_famille_prot
	proteines->enzymes
	metabolisme->graphe
	metabolisme->enzymes
	regulation->tfbs
	regulation->orthologie
	reseau->modelisation
	techno->sparql
	regulation->graphe
	proteines->annotation
	metabolisme->comparaison
	graphe->abstraction
	application->adam
	application->biologie_marine
	classification->signature
	reseau->identification_reseau
	regulation->non_codant
	metabolisme->annotation
	requete->biopax
	requete->performance
	requete->construction
	asp->opt_combinatoire
	reseau->signalisation
	classification->fca
	modelisation->rdf
	techno->python
	requete->sparql
	regulation->annotation
	modelisation->biopax
	proteines->identification_prot
	techno->visualisation
	reseau->regulation
	techno->asp
	asp->hybride
	metabolisme->transporteurs
	signalisation->comparaison
	graphe->compression
	techno->java
	signalisation->controleur
	techno->docker
	metabolisme->reconstruction
	graphe->signature
	graphe->biomarqueur
	proteines->transporteurs
	application->puceron
	graphe->controleurs
	reseau->graphe
}
