{
    "name": "white theme",
    "description": "a white theme to draw graphs (for articles)",
    "ASP": "label(X,\"\"):- concept(X).\nobj_property(node,shape,circle).\nobj_property(node,width,\"0.3\").\nobj_property(graph,dpi,400).\ntextwrap(6).\nobj_property(edge,minlen,4).\nobj_property(edge,labeldistance,\"4\").\n",
    "inputs": [
        "link/2"
    ],
    "outputs": [
        "label/2,",
        "obj_property/3,",
        "textwrap/1"
    ],
    "active at startup": false
}