[{
    "name": "JSON Example 1",
    "description": "example of JSON module",
    "ASP": "color(A,B,C) :- triplet(A,B,C,_).",
    "tags": ["json example"],
    "inputs": ["triplet/4"],
    "outputs": ["color/3"]
},{
    "name": "JSON Example 2",
    "description": "example of JSON module",
    "ASP": "p(X) :- q(X,Y). yolande(C) :- michel(C).",
    "tags": ["json example"],
    "inputs": ["q/2", "michel/1"],
    "outputs": ["p/1", "yolande/1"]
}]
